…
```
## -- Conflicts ------------------------------------------ tidyverse_conflicts() --
## x dplyr::filter() masks stats::filter()
## x dplyr::lag()    masks stats::lag()
```

## Mammals Sleep
For this assignment, we are going to use built-in data on mammal sleep patterns.  

```r
msleep
```

```
## # A tibble: 83 x 11
##    name  genus vore  order conservation sleep_total sleep_rem sleep_cycle
##    <chr> <chr> <chr> <chr> <chr>              <dbl>     <dbl>       <dbl>
##  1 Chee~ Acin~ carni Carn~ lc                  12.1      NA        NA    
##  2 Owl ~ Aotus omni  Prim~ <NA>                17         1.8      NA    
##  3 Moun~ Aplo~ herbi Rode~ nt                  14.4       2.4      NA    
##  4 Grea~ Blar~ omni  Sori~ lc                  14.9       2.3       0.133
##  5 Cow   Bos   herbi Arti~ domesticated         4         0.7       0.667
##  6 Thre~ Brad~ herbi Pilo~ <NA>                14.4       2.2       0.767
##  7 Nort~ Call~ carni Carn~ vu                   8.7       1.4       0.383
##  8 Vesp~ Calo~ <NA>  Rode~ <NA>                 7        NA        NA    
##  9 Dog   Canis carni Carn~ domesticated        10.1       2.9       0.333
## 10 Roe ~ Capr~ herbi Arti~ lc                   3        NA        NA    
## # ... with 73 more rows, and 3 more variables: awake <dbl>, brainwt <dbl>,
## #   bodywt <dbl>
```
…
3. Make a new data frame focused on body weight, but be sure to indicate the common name and genus of each mammal.  

```r
my_interest <-
  msleep %>%
  select (name, genus, bodywt)
my_interest
```

```
## # A tibble: 83 x 3
##    name                       genus        bodywt
##    <chr>                      <chr>         <dbl>
##  1 Cheetah                    Acinonyx     50    
##  2 Owl monkey                 Aotus         0.48 
##  3 Mountain beaver            Aplodontia    1.35 
##  4 Greater short-tailed shrew Blarina       0.019
##  5 Cow                        Bos         600    
##  6 Three-toed sloth           Bradypus      3.85 
##  7 Northern fur seal          Callorhinus  20.5  
##  8 Vesper mouse               Calomys       0.045
##  9 Dog                        Canis        14    
## 10 Roe deer                   Capreolus    14.8  
## # ... with 73 more rows
```


4. We are interested in two groups; small and large mammals. Let's define small as less than or equal to 1kg body weight and large as greater than or equal to 200kg body weight. For our study, we are interested in body weight and sleep total Make two new dataframes (large and small) based on these parameters.  


```r
small <-
  my_interest %>%
  filter (bodywt <=1)
small
```

```
## # A tibble: 36 x 3
##    name                       genus      bodywt
##    <chr>                      <chr>       <dbl>
##  1 Owl monkey                 Aotus       0.48 
##  2 Greater short-tailed shrew Blarina     0.019
##  3 Vesper mouse               Calomys     0.045
##  4 Guinea pig                 Cavis       0.728
##  5 Chinchilla                 Chinchilla  0.42 
##  6 Star-nosed mole            Condylura   0.06 
##  7 African giant pouched rat  Cricetomys  1    
##  8 Lesser short-tailed shrew  Cryptotis   0.005
##  9 Big brown bat              Eptesicus   0.023
## 10 European hedgehog          Erinaceus   0.77 
## # ... with 26 more rows
```
…
