…
```r
mammals <- 
  homerange %>% 
  filter(taxon=="mammals") %>% 
  select(common.name, family, genus, species, trophic.guild, mean.mass.g, log10.mass, mean.hra.m2, log10.hra, preymass, log10.preymass)
```


```r
mammals
```

```
## # A tibble: 238 x 11
##    common.name family genus species trophic.guild mean.mass.g log10.mass
##    <chr>       <chr>  <chr> <chr>   <chr>               <dbl>      <dbl>
##  1 giant gold… chrys… chry… trevel… carnivore            437.       2.64
##  2 Grant's go… chrys… erem… granti  carnivore             23        1.36
##  3 pronghorn   antil… anti… americ… herbivore          46100.       4.66
##  4 impala      bovid… aepy… melamp… herbivore          63504.       4.80
##  5 hartebeest  bovid… alce… busela… herbivore         136000.       5.13
##  6 barbary sh… bovid… ammo… lervia  herbivore         167498.       5.22
##  7 American b… bovid… bison bison   herbivore         629999.       5.80
##  8 European b… bovid… bison bonasus herbivore         628001.       5.80
##  9 goat        bovid… capra hircus  herbivore          51000.       4.71
## 10 Spanish ib… bovid… capra pyrena… herbivore          69499.       4.84
## # … with 228 more rows, and 4 more variables: mean.hra.m2 <dbl>,
## #   log10.hra <dbl>, preymass <dbl>, log10.preymass <dbl>
```
…
```r
homerange %>% 
  filter(taxon =="mammals") %>% 
  select(common.name, mean.mass.g) %>% 
  arrange(mean.mass.g)
```

```
## # A tibble: 238 x 2
##    common.name                    mean.mass.g
##    <chr>                                <dbl>
##  1 cinereus shrew                        4.17
##  2 slender shrew                         4.37
##  3 arctic shrew                          8.13
##  4 crowned shrew                         9.33
##  5 greater white-footed shrew           10   
##  6 salt marsh harvest mouse             11.0 
##  7 long-clawed shrew                    14.1 
##  8 Northern three-striped opossum       19.5 
##  9 wood mouse                           21.2 
## 10 southern grasshopper mouse           22   
## # … with 228 more rows
```
…
