…
6. Which cities in California have the highest number of colleges?

```r
college %>% 
  filter(STABBR == "CA") %>% 
  group_by(CITY) %>% 
  summarize(TOTAL = n()) %>% 
  arrange(desc(TOTAL))
```

```
## # A tibble: 159 x 2
##    CITY          TOTAL
##    <chr>         <int>
##  1 Los Angeles      24
##  2 San Diego        18
##  3 San Francisco    15
##  4 Sacramento       10
##  5 Berkeley          9
##  6 Oakland           9
##  7 Claremont         7
##  8 Pasadena          6
##  9 Fresno            5
## 10 Irvine            5
## # … with 149 more rows
```
…
