…
```
## Warning: NAs introduced by coercion
```

8. Are the data tidy? Why?  
#yes, it is tidy, because all three requirements to be tidy is met.

```r
fisheries_tidy
```

```
## # A tibble: 1,114,596 x 10
##    country commname spgroup spgroupname spcode sciname region unit   year
##    <chr>   <chr>      <dbl> <chr>       <chr>  <chr>    <dbl> <chr> <dbl>
##  1 Albania Angelsh…      38 Sharks, ra… 10903… Squati…     37 Quan…  1950
##  2 Albania Atlanti…      36 Tunas, bon… 17501… Sarda …     37 Quan…  1950
##  3 Albania Barracu…      37 Miscellane… 17710… Sphyra…     37 Quan…  1950
##  4 Albania Blue an…      45 Shrimps, p… 22802… Ariste…     37 Quan…  1950
##  5 Albania Blue wh…      32 Cods, hake… 14804… Microm…     37 Quan…  1950
##  6 Albania Bluefish      37 Miscellane… 17020… Pomato…     37 Quan…  1950
##  7 Albania Bogue         33 Miscellane… 17039… Boops …     37 Quan…  1950
##  8 Albania Caramot…      45 Shrimps, p… 22801… Penaeu…     37 Quan…  1950
##  9 Albania Catshar…      38 Sharks, ra… 10801… Scylio…     37 Quan…  1950
## 10 Albania Common …      57 Squids, cu… 32102… Sepia …     37 Quan…  1950
## # … with 1,114,586 more rows, and 1 more variable: catch <dbl>
```
…
10. Let's be more specific. Who consumes the most `Common cuttlefish`? Store this as a new object `cuttle`.

```r
cuttle <-
  fisheries_tidy %>% 
  select(country, commname, sciname, year, catch) %>% 
  filter(year >=2008 & year <= 2012) %>% 
  arrange(desc(catch))
cuttle
```

```
## # A tibble: 88,460 x 5
##    country  commname                     sciname            year   catch
##    <chr>    <chr>                        <chr>             <dbl>   <dbl>
##  1 Peru     Anchoveta(=Peruvian anchovy) Engraulis ringens  2009 5935165
##  2 Peru     Anchoveta(=Peruvian anchovy) Engraulis ringens  2012 3776880
##  3 Peru     Anchoveta(=Peruvian anchovy) Engraulis ringens  2010 3450609
##  4 China    Marine fishes nei            Osteichthyes       2011 2780023
##  5 China    Marine fishes nei            Osteichthyes       2010 2644899
##  6 Myanmar  Marine fishes nei            Osteichthyes       2011 2110443
##  7 Myanmar  Marine fishes nei            Osteichthyes       2010 2003723
##  8 China    Marine fishes nei            Osteichthyes       2008 1934167
##  9 Viet Nam Marine fishes nei            Osteichthyes       2012 1730444
## 10 Myanmar  Marine fishes nei            Osteichthyes       2008 1636308
## # … with 88,450 more rows
```
…
